…
```
##      total.na  ratio.na
## [1,]     2304 0.1311475
```

```r
daily.na <- act %>% group_by(date) %>% summarize(ratio.na = mean(is.na(steps)))
daily.na
```

```
## # A tibble: 61 x 2
##    date       ratio.na
##    <date>        <dbl>
##  1 2012-10-01        1
##  2 2012-10-02        0
##  3 2012-10-03        0
##  4 2012-10-04        0
##  5 2012-10-05        0
##  6 2012-10-06        0
##  7 2012-10-07        0
##  8 2012-10-08        1
##  9 2012-10-09        0
## 10 2012-10-10        0
## # ... with 51 more rows
```
…
```r
days.na <- daily.na[daily.na$ratio.na == 1, 1][[1]]
```

### Imputing values using described method

```r
act.imputed <- act %>% mutate(weekday = weekdays(act$date))
weekday.mean.steps <- act.imputed %>% filter(!(date %in% days.na)) %>% 
    group_by(weekday, interval) %>% summarize(mean.step.number = mean(steps))
weekday.mean.steps
```

```
## # A tibble: 2,016 x 3
## # Groups:   weekday [7]
##    weekday interval mean.step.number
##    <chr>      <int>            <dbl>
##  1 Friday         0                0
##  2 Friday         5                0
##  3 Friday        10                0
##  4 Friday        15                0
##  5 Friday        20                0
##  6 Friday        25                0
##  7 Friday        30                0
##  8 Friday        35                0
##  9 Friday        40                0
## 10 Friday        45                0
## # ... with 2,006 more rows
```
…
